…
phyExpandData(x=bird.abu, labels=bird.lab, phy=bird.phy, datatype="abundance")
$North.site
# A tibble: 81 x 7
   parent  node branch.length label             tgroup node.age branch.abun
    <int> <int>         <dbl> <chr>             <chr>     <dbl>       <int>
 1     46     1          32.0 Alisterus_scapul~ Tip           0           3
 2     46     2          32.0 Platycercus_eleg~ Tip           0           2
 3     47     3          32.1 Cacatua_galerita  Tip           0           1
 4     47     4          32.1 Calyptorhynchus_~ Tip           0           4
 5     48     5          60.6 Menura_novaeholl~ Tip           0           9
 6     50     6          49.8 Ptilonorhynchus_~ Tip           0           2
 7     50     7          49.8 Cormobates_leuco~ Tip           0          11
 8     53     8          14.3 Malurus_lamberti  Tip           0           0
 9     53     9          14.3 Malurus_cyaneus   Tip           0           0
10     55    10          37.0 Pardalotus_punct~ Tip           0          15
# ... with 71 more rows

$South.site
# A tibble: 81 x 7
   parent  node branch.length label             tgroup node.age branch.abun
    <int> <int>         <dbl> <chr>             <chr>     <dbl>       <int>
 1     46     1          32.0 Alisterus_scapul~ Tip           0           1
 2     46     2          32.0 Platycercus_eleg~ Tip           0           7
 3     47     3          32.1 Cacatua_galerita  Tip           0           2
 4     47     4          32.1 Calyptorhynchus_~ Tip           0           1
 5     48     5          60.6 Menura_novaeholl~ Tip           0           5
 6     50     6          49.8 Ptilonorhynchus_~ Tip           0           2
 7     50     7          49.8 Cormobates_leuco~ Tip           0          32
 8     53     8          14.3 Malurus_lamberti  Tip           0           6
 9     53     9          14.3 Malurus_cyaneus   Tip           0           6
10     55    10          37.0 Pardalotus_punct~ Tip           0          17
# ... with 71 more rows
```
…
